[XDSGD_01]
HTTPStatusCode: 200
{"results":{"links":{"next":"http://45.32.106.84:3088/api/students/?limit=10&offset=10","previous":null},"total_items":39,"item_per_page":10,"data":[{"id":5,"full_name":"Bùi Minh Anh","gender":"Nam","birthday":"2012-10-10","address":"Đồng Nai","nation":"Kinh","religion":"Không","father_name":"Bùi Minh Anh Bố","father_job":"Bác sĩ","mother_name":"Nguyễn Minh Anh Mẹ","mother_job":"Y tá","classes":{"id":1,"name":"Lớp 6A","slug":"lop-6a","description":"Lớp 6A ban cơ bản"},"school_year":{"id":2,"name":"Năm học 2023-2024"},"created_at":"04/05/2024","updated_at":"04/05/2024"},{"id":34,"full_name":"Bùi Minh Anh","gender":"Nam","birthday":"2012-10-10","address":"Đồng Nai","nation":"Kinh","religion":"Không","father_name":"Bùi Minh Anh Bố","father_job":"Bác sĩ","mother_name":"Nguyễn Minh Anh Mẹ","mother_job":"Y tá","classes":{"id":1,"name":"Lớp 6A","slug":"lop-6a","description":"Lớp 6A ban cơ bản"},"school_year":{"id":2,"name":"Năm học 2023-2024"},"created_at":"04/05/2024","updated_at":"04/05/2024"},{"id":33,"full_name":"Bùi Minh Anh","gender":"Nam","birthday":"2012-10-10","address":"Đồng Nai","nation":"Kinh","religion":"Không","father_name":"Bùi Minh Anh Bố","father_job":"Bác sĩ","mother_name":"Nguyễn Minh Anh Mẹ","mother_job":"Y tá","classes":{"id":1,"name":"Lớp 6A","slug":"lop-6a","description":"Lớp 6A ban cơ bản"},"school_year":{"id":2,"name":"Năm học 2023-2024"},"created_at":"04/05/2024","updated_at":"04/05/2024"},{"id":32,"full_name":"Bùi Minh Anh","gender":"Nam","birthday":"2012-10-10","address":"Đồng Nai","nation":"Kinh","religion":"Không","father_name":"Bùi Minh Anh Bố","father_job":"Bác sĩ","mother_name":"Nguyễn Minh Anh Mẹ","mother_job":"Y tá","classes":{"id":1,"name":"Lớp 6A","slug":"lop-6a","description":"Lớp 6A ban cơ bản"},"school_year":{"id":2,"name":"Năm học 2023-2024"},"created_at":"04/05/2024","updated_at":"04/05/2024"},{"id":31,"full_name":"Bùi Minh Anh","gender":"Nam","birthday":"2012-10-10","address":"Đồng Nai","nation":"Kinh","religion":"Không","father_name":"Bùi Minh Anh Bố","father_job":"Bác sĩ","mother_name":"Nguyễn Minh Anh Mẹ","mother_job":"Y tá","classes":{"id":1,"name":"Lớp 6A","slug":"lop-6a","description":"Lớp 6A ban cơ bản"},"school_year":{"id":2,"name":"Năm học 2023-2024"},"created_at":"04/05/2024","updated_at":"04/05/2024"},{"id":30,"full_name":"Bùi Minh Anh","gender":"Nam","birthday":"2012-10-10","address":"Đồng Nai","nation":"Kinh","religion":"Không","father_name":"Bùi Minh Anh Bố","father_job":"Bác sĩ","mother_name":null,"mother_job":"Y tá","classes":{"id":1,"name":"Lớp 6A","slug":"lop-6a","description":"Lớp 6A ban cơ bản"},"school_year":{"id":2,"name":"Năm học 2023-2024"},"created_at":"04/05/2024","updated_at":"04/05/2024"},{"id":29,"full_name":"Bùi Minh Anh","gender":"Nam","birthday":"2012-10-10","address":"Đồng Nai","nation":"Kinh","religion":"Không","father_name":"Bùi Minh Anh Bố","father_job":"Bác sĩ","mother_name":"","mother_job":"Y tá","classes":{"id":1,"name":"Lớp 6A","slug":"lop-6a","description":"Lớp 6A ban cơ bản"},"school_year":{"id":2,"name":"Năm học 2023-2024"},"created_at":"04/05/2024","updated_at":"04/05/2024"},{"id":28,"full_name":"Bùi Minh Anh","gender":"Nam","birthday":"2012-10-10","address":"Đồng Nai","nation":"Kinh","religion":"Không","father_name":"Bùi Minh Anh Bố","father_job":"Bác sĩ","mother_name":"","mother_job":"Y tá","classes":{"id":1,"name":"Lớp 6A","slug":"lop-6a","description":"Lớp 6A ban cơ bản"},"school_year":{"id":2,"name":"Năm học 2023-2024"},"created_at":"04/05/2024","updated_at":"04/05/2024"},{"id":27,"full_name":"Bùi Minh Anh","gender":"Nam","birthday":"2012-10-10","address":"Đồng Nai","nation":"Kinh","religion":"Không","father_name":"Bùi Minh Anh Bố","father_job":"Bác sĩ","mother_name":null,"mother_job":"Y tá","classes":{"id":1,"name":"Lớp 6A","slug":"lop-6a","description":"Lớp 6A ban cơ bản"},"school_year":{"id":2,"name":"Năm học 2023-2024"},"created_at":"04/05/2024","updated_at":"04/05/2024"},{"id":26,"full_name":"Bùi Minh Anh","gender":"Nam","birthday":"2012-10-10","address":"Đồng Nai","nation":"Kinh","religion":"Không","father_name":null,"father_job":"Bác sĩ","mother_name":"Nguyễn Minh Anh Mẹ","mother_job":"Y tá","classes":{"id":1,"name":"Lớp 6A","slug":"lop-6a","description":"Lớp 6A ban cơ bản"},"school_year":{"id":2,"name":"Năm học 2023-2024"},"created_at":"04/05/2024","updated_at":"04/05/2024"}]}}
[XDSGD_02]
HTTPStatusCode: 200
{"results":{"links":{"next":"http://45.32.106.84:3088/api/students/?limit=10&offset=10","previous":null},"total_items":39,"item_per_page":10,"data":[{"id":5,"full_name":"Bùi Minh Anh","gender":"Nam","birthday":"2012-10-10","address":"Đồng Nai","nation":"Kinh","religion":"Không","father_name":"Bùi Minh Anh Bố","father_job":"Bác sĩ","mother_name":"Nguyễn Minh Anh Mẹ","mother_job":"Y tá","classes":{"id":1,"name":"Lớp 6A","slug":"lop-6a","description":"Lớp 6A ban cơ bản"},"school_year":{"id":2,"name":"Năm học 2023-2024"},"created_at":"04/05/2024","updated_at":"04/05/2024"},{"id":34,"full_name":"Bùi Minh Anh","gender":"Nam","birthday":"2012-10-10","address":"Đồng Nai","nation":"Kinh","religion":"Không","father_name":"Bùi Minh Anh Bố","father_job":"Bác sĩ","mother_name":"Nguyễn Minh Anh Mẹ","mother_job":"Y tá","classes":{"id":1,"name":"Lớp 6A","slug":"lop-6a","description":"Lớp 6A ban cơ bản"},"school_year":{"id":2,"name":"Năm học 2023-2024"},"created_at":"04/05/2024","updated_at":"04/05/2024"},{"id":33,"full_name":"Bùi Minh Anh","gender":"Nam","birthday":"2012-10-10","address":"Đồng Nai","nation":"Kinh","religion":"Không","father_name":"Bùi Minh Anh Bố","father_job":"Bác sĩ","mother_name":"Nguyễn Minh Anh Mẹ","mother_job":"Y tá","classes":{"id":1,"name":"Lớp 6A","slug":"lop-6a","description":"Lớp 6A ban cơ bản"},"school_year":{"id":2,"name":"Năm học 2023-2024"},"created_at":"04/05/2024","updated_at":"04/05/2024"},{"id":32,"full_name":"Bùi Minh Anh","gender":"Nam","birthday":"2012-10-10","address":"Đồng Nai","nation":"Kinh","religion":"Không","father_name":"Bùi Minh Anh Bố","father_job":"Bác sĩ","mother_name":"Nguyễn Minh Anh Mẹ","mother_job":"Y tá","classes":{"id":1,"name":"Lớp 6A","slug":"lop-6a","description":"Lớp 6A ban cơ bản"},"school_year":{"id":2,"name":"Năm học 2023-2024"},"created_at":"04/05/2024","updated_at":"04/05/2024"},{"id":31,"full_name":"Bùi Minh Anh","gender":"Nam","birthday":"2012-10-10","address":"Đồng Nai","nation":"Kinh","religion":"Không","father_name":"Bùi Minh Anh Bố","father_job":"Bác sĩ","mother_name":"Nguyễn Minh Anh Mẹ","mother_job":"Y tá","classes":{"id":1,"name":"Lớp 6A","slug":"lop-6a","description":"Lớp 6A ban cơ bản"},"school_year":{"id":2,"name":"Năm học 2023-2024"},"created_at":"04/05/2024","updated_at":"04/05/2024"},{"id":30,"full_name":"Bùi Minh Anh","gender":"Nam","birthday":"2012-10-10","address":"Đồng Nai","nation":"Kinh","religion":"Không","father_name":"Bùi Minh Anh Bố","father_job":"Bác sĩ","mother_name":null,"mother_job":"Y tá","classes":{"id":1,"name":"Lớp 6A","slug":"lop-6a","description":"Lớp 6A ban cơ bản"},"school_year":{"id":2,"name":"Năm học 2023-2024"},"created_at":"04/05/2024","updated_at":"04/05/2024"},{"id":29,"full_name":"Bùi Minh Anh","gender":"Nam","birthday":"2012-10-10","address":"Đồng Nai","nation":"Kinh","religion":"Không","father_name":"Bùi Minh Anh Bố","father_job":"Bác sĩ","mother_name":"","mother_job":"Y tá","classes":{"id":1,"name":"Lớp 6A","slug":"lop-6a","description":"Lớp 6A ban cơ bản"},"school_year":{"id":2,"name":"Năm học 2023-2024"},"created_at":"04/05/2024","updated_at":"04/05/2024"},{"id":28,"full_name":"Bùi Minh Anh","gender":"Nam","birthday":"2012-10-10","address":"Đồng Nai","nation":"Kinh","religion":"Không","father_name":"Bùi Minh Anh Bố","father_job":"Bác sĩ","mother_name":"","mother_job":"Y tá","classes":{"id":1,"name":"Lớp 6A","slug":"lop-6a","description":"Lớp 6A ban cơ bản"},"school_year":{"id":2,"name":"Năm học 2023-2024"},"created_at":"04/05/2024","updated_at":"04/05/2024"},{"id":27,"full_name":"Bùi Minh Anh","gender":"Nam","birthday":"2012-10-10","address":"Đồng Nai","nation":"Kinh","religion":"Không","father_name":"Bùi Minh Anh Bố","father_job":"Bác sĩ","mother_name":null,"mother_job":"Y tá","classes":{"id":1,"name":"Lớp 6A","slug":"lop-6a","description":"Lớp 6A ban cơ bản"},"school_year":{"id":2,"name":"Năm học 2023-2024"},"created_at":"04/05/2024","updated_at":"04/05/2024"},{"id":26,"full_name":"Bùi Minh Anh","gender":"Nam","birthday":"2012-10-10","address":"Đồng Nai","nation":"Kinh","religion":"Không","father_name":null,"father_job":"Bác sĩ","mother_name":"Nguyễn Minh Anh Mẹ","mother_job":"Y tá","classes":{"id":1,"name":"Lớp 6A","slug":"lop-6a","description":"Lớp 6A ban cơ bản"},"school_year":{"id":2,"name":"Năm học 2023-2024"},"created_at":"04/05/2024","updated_at":"04/05/2024"}]}}
[XDSGD_03]
HTTPStatusCode: 200
{"results":{"links":{"next":"http://45.32.106.84:3088/api/students/?limit=10&offset=10","previous":null},"total_items":39,"item_per_page":10,"data":[{"id":5,"full_name":"Bùi Minh Anh","gender":"Nam","birthday":"2012-10-10","address":"Đồng Nai","nation":"Kinh","religion":"Không","father_name":"Bùi Minh Anh Bố","father_job":"Bác sĩ","mother_name":"Nguyễn Minh Anh Mẹ","mother_job":"Y tá","classes":{"id":1,"name":"Lớp 6A","slug":"lop-6a","description":"Lớp 6A ban cơ bản"},"school_year":{"id":2,"name":"Năm học 2023-2024"},"created_at":"04/05/2024","updated_at":"04/05/2024"},{"id":34,"full_name":"Bùi Minh Anh","gender":"Nam","birthday":"2012-10-10","address":"Đồng Nai","nation":"Kinh","religion":"Không","father_name":"Bùi Minh Anh Bố","father_job":"Bác sĩ","mother_name":"Nguyễn Minh Anh Mẹ","mother_job":"Y tá","classes":{"id":1,"name":"Lớp 6A","slug":"lop-6a","description":"Lớp 6A ban cơ bản"},"school_year":{"id":2,"name":"Năm học 2023-2024"},"created_at":"04/05/2024","updated_at":"04/05/2024"},{"id":33,"full_name":"Bùi Minh Anh","gender":"Nam","birthday":"2012-10-10","address":"Đồng Nai","nation":"Kinh","religion":"Không","father_name":"Bùi Minh Anh Bố","father_job":"Bác sĩ","mother_name":"Nguyễn Minh Anh Mẹ","mother_job":"Y tá","classes":{"id":1,"name":"Lớp 6A","slug":"lop-6a","description":"Lớp 6A ban cơ bản"},"school_year":{"id":2,"name":"Năm học 2023-2024"},"created_at":"04/05/2024","updated_at":"04/05/2024"},{"id":32,"full_name":"Bùi Minh Anh","gender":"Nam","birthday":"2012-10-10","address":"Đồng Nai","nation":"Kinh","religion":"Không","father_name":"Bùi Minh Anh Bố","father_job":"Bác sĩ","mother_name":"Nguyễn Minh Anh Mẹ","mother_job":"Y tá","classes":{"id":1,"name":"Lớp 6A","slug":"lop-6a","description":"Lớp 6A ban cơ bản"},"school_year":{"id":2,"name":"Năm học 2023-2024"},"created_at":"04/05/2024","updated_at":"04/05/2024"},{"id":31,"full_name":"Bùi Minh Anh","gender":"Nam","birthday":"2012-10-10","address":"Đồng Nai","nation":"Kinh","religion":"Không","father_name":"Bùi Minh Anh Bố","father_job":"Bác sĩ","mother_name":"Nguyễn Minh Anh Mẹ","mother_job":"Y tá","classes":{"id":1,"name":"Lớp 6A","slug":"lop-6a","description":"Lớp 6A ban cơ bản"},"school_year":{"id":2,"name":"Năm học 2023-2024"},"created_at":"04/05/2024","updated_at":"04/05/2024"},{"id":30,"full_name":"Bùi Minh Anh","gender":"Nam","birthday":"2012-10-10","address":"Đồng Nai","nation":"Kinh","religion":"Không","father_name":"Bùi Minh Anh Bố","father_job":"Bác sĩ","mother_name":null,"mother_job":"Y tá","classes":{"id":1,"name":"Lớp 6A","slug":"lop-6a","description":"Lớp 6A ban cơ bản"},"school_year":{"id":2,"name":"Năm học 2023-2024"},"created_at":"04/05/2024","updated_at":"04/05/2024"},{"id":29,"full_name":"Bùi Minh Anh","gender":"Nam","birthday":"2012-10-10","address":"Đồng Nai","nation":"Kinh","religion":"Không","father_name":"Bùi Minh Anh Bố","father_job":"Bác sĩ","mother_name":"","mother_job":"Y tá","classes":{"id":1,"name":"Lớp 6A","slug":"lop-6a","description":"Lớp 6A ban cơ bản"},"school_year":{"id":2,"name":"Năm học 2023-2024"},"created_at":"04/05/2024","updated_at":"04/05/2024"},{"id":28,"full_name":"Bùi Minh Anh","gender":"Nam","birthday":"2012-10-10","address":"Đồng Nai","nation":"Kinh","religion":"Không","father_name":"Bùi Minh Anh Bố","father_job":"Bác sĩ","mother_name":"","mother_job":"Y tá","classes":{"id":1,"name":"Lớp 6A","slug":"lop-6a","description":"Lớp 6A ban cơ bản"},"school_year":{"id":2,"name":"Năm học 2023-2024"},"created_at":"04/05/2024","updated_at":"04/05/2024"},{"id":27,"full_name":"Bùi Minh Anh","gender":"Nam","birthday":"2012-10-10","address":"Đồng Nai","nation":"Kinh","religion":"Không","father_name":"Bùi Minh Anh Bố","father_job":"Bác sĩ","mother_name":null,"mother_job":"Y tá","classes":{"id":1,"name":"Lớp 6A","slug":"lop-6a","description":"Lớp 6A ban cơ bản"},"school_year":{"id":2,"name":"Năm học 2023-2024"},"created_at":"04/05/2024","updated_at":"04/05/2024"},{"id":26,"full_name":"Bùi Minh Anh","gender":"Nam","birthday":"2012-10-10","address":"Đồng Nai","nation":"Kinh","religion":"Không","father_name":null,"father_job":"Bác sĩ","mother_name":"Nguyễn Minh Anh Mẹ","mother_job":"Y tá","classes":{"id":1,"name":"Lớp 6A","slug":"lop-6a","description":"Lớp 6A ban cơ bản"},"school_year":{"id":2,"name":"Năm học 2023-2024"},"created_at":"04/05/2024","updated_at":"04/05/2024"}]}}
[XDSGD_04]
HTTPStatusCode: 200
{"results":{"links":{"next":"http://45.32.106.84:3088/api/students/?limit=10&offset=10","previous":null},"total_items":39,"item_per_page":10,"data":[{"id":5,"full_name":"Bùi Minh Anh","gender":"Nam","birthday":"2012-10-10","address":"Đồng Nai","nation":"Kinh","religion":"Không","father_name":"Bùi Minh Anh Bố","father_job":"Bác sĩ","mother_name":"Nguyễn Minh Anh Mẹ","mother_job":"Y tá","classes":{"id":1,"name":"Lớp 6A","slug":"lop-6a","description":"Lớp 6A ban cơ bản"},"school_year":{"id":2,"name":"Năm học 2023-2024"},"created_at":"04/05/2024","updated_at":"04/05/2024"},{"id":34,"full_name":"Bùi Minh Anh","gender":"Nam","birthday":"2012-10-10","address":"Đồng Nai","nation":"Kinh","religion":"Không","father_name":"Bùi Minh Anh Bố","father_job":"Bác sĩ","mother_name":"Nguyễn Minh Anh Mẹ","mother_job":"Y tá","classes":{"id":1,"name":"Lớp 6A","slug":"lop-6a","description":"Lớp 6A ban cơ bản"},"school_year":{"id":2,"name":"Năm học 2023-2024"},"created_at":"04/05/2024","updated_at":"04/05/2024"},{"id":33,"full_name":"Bùi Minh Anh","gender":"Nam","birthday":"2012-10-10","address":"Đồng Nai","nation":"Kinh","religion":"Không","father_name":"Bùi Minh Anh Bố","father_job":"Bác sĩ","mother_name":"Nguyễn Minh Anh Mẹ","mother_job":"Y tá","classes":{"id":1,"name":"Lớp 6A","slug":"lop-6a","description":"Lớp 6A ban cơ bản"},"school_year":{"id":2,"name":"Năm học 2023-2024"},"created_at":"04/05/2024","updated_at":"04/05/2024"},{"id":32,"full_name":"Bùi Minh Anh","gender":"Nam","birthday":"2012-10-10","address":"Đồng Nai","nation":"Kinh","religion":"Không","father_name":"Bùi Minh Anh Bố","father_job":"Bác sĩ","mother_name":"Nguyễn Minh Anh Mẹ","mother_job":"Y tá","classes":{"id":1,"name":"Lớp 6A","slug":"lop-6a","description":"Lớp 6A ban cơ bản"},"school_year":{"id":2,"name":"Năm học 2023-2024"},"created_at":"04/05/2024","updated_at":"04/05/2024"},{"id":31,"full_name":"Bùi Minh Anh","gender":"Nam","birthday":"2012-10-10","address":"Đồng Nai","nation":"Kinh","religion":"Không","father_name":"Bùi Minh Anh Bố","father_job":"Bác sĩ","mother_name":"Nguyễn Minh Anh Mẹ","mother_job":"Y tá","classes":{"id":1,"name":"Lớp 6A","slug":"lop-6a","description":"Lớp 6A ban cơ bản"},"school_year":{"id":2,"name":"Năm học 2023-2024"},"created_at":"04/05/2024","updated_at":"04/05/2024"},{"id":30,"full_name":"Bùi Minh Anh","gender":"Nam","birthday":"2012-10-10","address":"Đồng Nai","nation":"Kinh","religion":"Không","father_name":"Bùi Minh Anh Bố","father_job":"Bác sĩ","mother_name":null,"mother_job":"Y tá","classes":{"id":1,"name":"Lớp 6A","slug":"lop-6a","description":"Lớp 6A ban cơ bản"},"school_year":{"id":2,"name":"Năm học 2023-2024"},"created_at":"04/05/2024","updated_at":"04/05/2024"},{"id":29,"full_name":"Bùi Minh Anh","gender":"Nam","birthday":"2012-10-10","address":"Đồng Nai","nation":"Kinh","religion":"Không","father_name":"Bùi Minh Anh Bố","father_job":"Bác sĩ","mother_name":"","mother_job":"Y tá","classes":{"id":1,"name":"Lớp 6A","slug":"lop-6a","description":"Lớp 6A ban cơ bản"},"school_year":{"id":2,"name":"Năm học 2023-2024"},"created_at":"04/05/2024","updated_at":"04/05/2024"},{"id":28,"full_name":"Bùi Minh Anh","gender":"Nam","birthday":"2012-10-10","address":"Đồng Nai","nation":"Kinh","religion":"Không","father_name":"Bùi Minh Anh Bố","father_job":"Bác sĩ","mother_name":"","mother_job":"Y tá","classes":{"id":1,"name":"Lớp 6A","slug":"lop-6a","description":"Lớp 6A ban cơ bản"},"school_year":{"id":2,"name":"Năm học 2023-2024"},"created_at":"04/05/2024","updated_at":"04/05/2024"},{"id":27,"full_name":"Bùi Minh Anh","gender":"Nam","birthday":"2012-10-10","address":"Đồng Nai","nation":"Kinh","religion":"Không","father_name":"Bùi Minh Anh Bố","father_job":"Bác sĩ","mother_name":null,"mother_job":"Y tá","classes":{"id":1,"name":"Lớp 6A","slug":"lop-6a","description":"Lớp 6A ban cơ bản"},"school_year":{"id":2,"name":"Năm học 2023-2024"},"created_at":"04/05/2024","updated_at":"04/05/2024"},{"id":26,"full_name":"Bùi Minh Anh","gender":"Nam","birthday":"2012-10-10","address":"Đồng Nai","nation":"Kinh","religion":"Không","father_name":null,"father_job":"Bác sĩ","mother_name":"Nguyễn Minh Anh Mẹ","mother_job":"Y tá","classes":{"id":1,"name":"Lớp 6A","slug":"lop-6a","description":"Lớp 6A ban cơ bản"},"school_year":{"id":2,"name":"Năm học 2023-2024"},"created_at":"04/05/2024","updated_at":"04/05/2024"}]}}
[XDSGD_05]
HTTPStatusCode: 200
{"results":{"links":{"next":"http://45.32.106.84:3088/api/students/?limit=10&offset=10","previous":null},"total_items":39,"item_per_page":10,"data":[{"id":5,"full_name":"Bùi Minh Anh","gender":"Nam","birthday":"2012-10-10","address":"Đồng Nai","nation":"Kinh","religion":"Không","father_name":"Bùi Minh Anh Bố","father_job":"Bác sĩ","mother_name":"Nguyễn Minh Anh Mẹ","mother_job":"Y tá","classes":{"id":1,"name":"Lớp 6A","slug":"lop-6a","description":"Lớp 6A ban cơ bản"},"school_year":{"id":2,"name":"Năm học 2023-2024"},"created_at":"04/05/2024","updated_at":"04/05/2024"},{"id":34,"full_name":"Bùi Minh Anh","gender":"Nam","birthday":"2012-10-10","address":"Đồng Nai","nation":"Kinh","religion":"Không","father_name":"Bùi Minh Anh Bố","father_job":"Bác sĩ","mother_name":"Nguyễn Minh Anh Mẹ","mother_job":"Y tá","classes":{"id":1,"name":"Lớp 6A","slug":"lop-6a","description":"Lớp 6A ban cơ bản"},"school_year":{"id":2,"name":"Năm học 2023-2024"},"created_at":"04/05/2024","updated_at":"04/05/2024"},{"id":33,"full_name":"Bùi Minh Anh","gender":"Nam","birthday":"2012-10-10","address":"Đồng Nai","nation":"Kinh","religion":"Không","father_name":"Bùi Minh Anh Bố","father_job":"Bác sĩ","mother_name":"Nguyễn Minh Anh Mẹ","mother_job":"Y tá","classes":{"id":1,"name":"Lớp 6A","slug":"lop-6a","description":"Lớp 6A ban cơ bản"},"school_year":{"id":2,"name":"Năm học 2023-2024"},"created_at":"04/05/2024","updated_at":"04/05/2024"},{"id":32,"full_name":"Bùi Minh Anh","gender":"Nam","birthday":"2012-10-10","address":"Đồng Nai","nation":"Kinh","religion":"Không","father_name":"Bùi Minh Anh Bố","father_job":"Bác sĩ","mother_name":"Nguyễn Minh Anh Mẹ","mother_job":"Y tá","classes":{"id":1,"name":"Lớp 6A","slug":"lop-6a","description":"Lớp 6A ban cơ bản"},"school_year":{"id":2,"name":"Năm học 2023-2024"},"created_at":"04/05/2024","updated_at":"04/05/2024"},{"id":31,"full_name":"Bùi Minh Anh","gender":"Nam","birthday":"2012-10-10","address":"Đồng Nai","nation":"Kinh","religion":"Không","father_name":"Bùi Minh Anh Bố","father_job":"Bác sĩ","mother_name":"Nguyễn Minh Anh Mẹ","mother_job":"Y tá","classes":{"id":1,"name":"Lớp 6A","slug":"lop-6a","description":"Lớp 6A ban cơ bản"},"school_year":{"id":2,"name":"Năm học 2023-2024"},"created_at":"04/05/2024","updated_at":"04/05/2024"},{"id":30,"full_name":"Bùi Minh Anh","gender":"Nam","birthday":"2012-10-10","address":"Đồng Nai","nation":"Kinh","religion":"Không","father_name":"Bùi Minh Anh Bố","father_job":"Bác sĩ","mother_name":null,"mother_job":"Y tá","classes":{"id":1,"name":"Lớp 6A","slug":"lop-6a","description":"Lớp 6A ban cơ bản"},"school_year":{"id":2,"name":"Năm học 2023-2024"},"created_at":"04/05/2024","updated_at":"04/05/2024"},{"id":29,"full_name":"Bùi Minh Anh","gender":"Nam","birthday":"2012-10-10","address":"Đồng Nai","nation":"Kinh","religion":"Không","father_name":"Bùi Minh Anh Bố","father_job":"Bác sĩ","mother_name":"","mother_job":"Y tá","classes":{"id":1,"name":"Lớp 6A","slug":"lop-6a","description":"Lớp 6A ban cơ bản"},"school_year":{"id":2,"name":"Năm học 2023-2024"},"created_at":"04/05/2024","updated_at":"04/05/2024"},{"id":28,"full_name":"Bùi Minh Anh","gender":"Nam","birthday":"2012-10-10","address":"Đồng Nai","nation":"Kinh","religion":"Không","father_name":"Bùi Minh Anh Bố","father_job":"Bác sĩ","mother_name":"","mother_job":"Y tá","classes":{"id":1,"name":"Lớp 6A","slug":"lop-6a","description":"Lớp 6A ban cơ bản"},"school_year":{"id":2,"name":"Năm học 2023-2024"},"created_at":"04/05/2024","updated_at":"04/05/2024"},{"id":27,"full_name":"Bùi Minh Anh","gender":"Nam","birthday":"2012-10-10","address":"Đồng Nai","nation":"Kinh","religion":"Không","father_name":"Bùi Minh Anh Bố","father_job":"Bác sĩ","mother_name":null,"mother_job":"Y tá","classes":{"id":1,"name":"Lớp 6A","slug":"lop-6a","description":"Lớp 6A ban cơ bản"},"school_year":{"id":2,"name":"Năm học 2023-2024"},"created_at":"04/05/2024","updated_at":"04/05/2024"},{"id":26,"full_name":"Bùi Minh Anh","gender":"Nam","birthday":"2012-10-10","address":"Đồng Nai","nation":"Kinh","religion":"Không","father_name":null,"father_job":"Bác sĩ","mother_name":"Nguyễn Minh Anh Mẹ","mother_job":"Y tá","classes":{"id":1,"name":"Lớp 6A","slug":"lop-6a","description":"Lớp 6A ban cơ bản"},"school_year":{"id":2,"name":"Năm học 2023-2024"},"created_at":"04/05/2024","updated_at":"04/05/2024"}]}}
