[XDSHS_01]
HTTPStatusCode: 200
{"results":{"links":{"next":"http://45.32.106.84:3088/api/students/?limit=10&offset=10","previous":null},"total_items":15,"item_per_page":10,"data":[{"id":6,"full_name":"Bùi Minh Anh","gender":"Nam","birthday":"2012-10-10","address":"Đồng Nai","nation":"Kinh","religion":"Không","father_name":"Bùi Minh Anh Bố","father_job":"Bác sĩ","mother_name":"Nguyễn Minh Anh Mẹ","mother_job":"Y tá","classes":{"id":1,"name":"Lớp 6A","slug":"lop-6a","description":"Lớp 6A ban cơ bản"},"school_year":{"id":2,"name":"Năm học 2023-2024"},"created_at":"04/05/2024","updated_at":"04/05/2024"},{"id":5,"full_name":"Bùi Minh Anh","gender":"Nam","birthday":"2012-10-10","address":"Đồng Nai","nation":"Kinh","religion":"Không","father_name":"Bùi Minh Anh Bố","father_job":"Bác sĩ","mother_name":"Nguyễn Minh Anh Mẹ","mother_job":"Y tá","classes":{"id":1,"name":"Lớp 6A","slug":"lop-6a","description":"Lớp 6A ban cơ bản"},"school_year":{"id":2,"name":"Năm học 2023-2024"},"created_at":"02/05/2024","updated_at":"02/05/2024"},{"id":4,"full_name":"Bùi Minh Anh","gender":"Nam","birthday":"2012-10-10","address":"Đồng Nai","nation":"Kinh","religion":"Không","father_name":"Bùi Minh Anh Bố","father_job":"Bác sĩ","mother_name":"Nguyễn Minh Anh Mẹ","mother_job":"Y tá","classes":{"id":1,"name":"Lớp 6A","slug":"lop-6a","description":"Lớp 6A ban cơ bản"},"school_year":{"id":2,"name":"Năm học 2023-2024"},"created_at":"08/04/2024","updated_at":"08/04/2024"},{"id":1,"full_name":"Bùi Minh Anh","gender":"Nam","birthday":"2012-10-10","address":"Đồng Nai","nation":"Kinh","religion":"Không","father_name":"Bùi Minh Anh Bố","father_job":"Bác sĩ","mother_name":"Nguyễn Minh Anh Mẹ","mother_job":"Y tá","classes":{"id":1,"name":"Lớp 6A","slug":"lop-6a","description":"Lớp 6A ban cơ bản"},"school_year":{"id":1,"name":"Năm học 2022-2023"},"created_at":"13/08/2023","updated_at":"13/08/2023"},{"id":7,"full_name":"Bùi Minh Anh","gender":"Nam","birthday":"2012-10-10","address":"Đồng Nai","nation":"Kinh","religion":"Không","father_name":"Bùi Minh Anh Bố","father_job":"Bác sĩ","mother_name":"Nguyễn Minh Anh Mẹ","mother_job":"Y tá","classes":{"id":1,"name":"Lớp 6A","slug":"lop-6a","description":"Lớp 6A ban cơ bản"},"school_year":{"id":2,"name":"Năm học 2023-2024"},"created_at":null,"updated_at":null},{"id":8,"full_name":"Bùi Minh Anh","gender":"Nam","birthday":"2012-10-10","address":"Đồng Nai","nation":"Kinh","religion":"Không","father_name":"Bùi Minh Anh Bố","father_job":"Bác sĩ","mother_name":"Nguyễn Minh Anh Mẹ","mother_job":"Y tá","classes":{"id":1,"name":"Lớp 6A","slug":"lop-6a","description":"Lớp 6A ban cơ bản"},"school_year":{"id":2,"name":"Năm học 2023-2024"},"created_at":null,"updated_at":null},{"id":9,"full_name":"Bùi Minh Anh","gender":"Nam","birthday":"2012-10-10","address":"Đồng Nai","nation":"Kinh","religion":"Không","father_name":"Bùi Minh Anh Bố","father_job":"Bác sĩ","mother_name":"Nguyễn Minh Anh Mẹ","mother_job":"Y tá","classes":{"id":1,"name":"Lớp 6A","slug":"lop-6a","description":"Lớp 6A ban cơ bản"},"school_year":{"id":2,"name":"Năm học 2023-2024"},"created_at":null,"updated_at":null},{"id":10,"full_name":"Bùi Minh Anh","gender":"Nam","birthday":"2012-10-10","address":"Đồng Nai","nation":"Kinh","religion":"Không","father_name":"Bùi Minh Anh Bố","father_job":"Bác sĩ","mother_name":"Nguyễn Minh Anh Mẹ","mother_job":"Y tá","classes":{"id":1,"name":"Lớp 6A","slug":"lop-6a","description":"Lớp 6A ban cơ bản"},"school_year":{"id":2,"name":"Năm học 2023-2024"},"created_at":null,"updated_at":null},{"id":11,"full_name":"Bùi Minh Anh","gender":"Nam","birthday":"2012-10-10","address":"Đồng Nai","nation":"Kinh","religion":"Không","father_name":"Bùi Minh Anh Bố","father_job":"Bác sĩ","mother_name":"Nguyễn Minh Anh Mẹ","mother_job":"Y tá","classes":{"id":1,"name":"Lớp 6A","slug":"lop-6a","description":"Lớp 6A ban cơ bản"},"school_year":{"id":2,"name":"Năm học 2023-2024"},"created_at":null,"updated_at":null},{"id":12,"full_name":"Bùi Minh Anh","gender":"Nam","birthday":"2012-10-10","address":"Đồng Nai","nation":"Kinh","religion":"Không","father_name":"Bùi Minh Anh Bố","father_job":"Bác sĩ","mother_name":"Nguyễn Minh Anh Mẹ","mother_job":"Y tá","classes":{"id":1,"name":"Lớp 6A","slug":"lop-6a","description":"Lớp 6A ban cơ bản"},"school_year":{"id":2,"name":"Năm học 2023-2024"},"created_at":null,"updated_at":null}]}}
[XDSHS_02]
HTTPStatusCode: 200
{"results":{"links":{"next":"http://45.32.106.84:3088/api/students/?limit=10&offset=10","previous":null},"total_items":15,"item_per_page":10,"data":[{"id":6,"full_name":"Bùi Minh Anh","gender":"Nam","birthday":"2012-10-10","address":"Đồng Nai","nation":"Kinh","religion":"Không","father_name":"Bùi Minh Anh Bố","father_job":"Bác sĩ","mother_name":"Nguyễn Minh Anh Mẹ","mother_job":"Y tá","classes":{"id":1,"name":"Lớp 6A","slug":"lop-6a","description":"Lớp 6A ban cơ bản"},"school_year":{"id":2,"name":"Năm học 2023-2024"},"created_at":"04/05/2024","updated_at":"04/05/2024"},{"id":5,"full_name":"Bùi Minh Anh","gender":"Nam","birthday":"2012-10-10","address":"Đồng Nai","nation":"Kinh","religion":"Không","father_name":"Bùi Minh Anh Bố","father_job":"Bác sĩ","mother_name":"Nguyễn Minh Anh Mẹ","mother_job":"Y tá","classes":{"id":1,"name":"Lớp 6A","slug":"lop-6a","description":"Lớp 6A ban cơ bản"},"school_year":{"id":2,"name":"Năm học 2023-2024"},"created_at":"02/05/2024","updated_at":"02/05/2024"},{"id":4,"full_name":"Bùi Minh Anh","gender":"Nam","birthday":"2012-10-10","address":"Đồng Nai","nation":"Kinh","religion":"Không","father_name":"Bùi Minh Anh Bố","father_job":"Bác sĩ","mother_name":"Nguyễn Minh Anh Mẹ","mother_job":"Y tá","classes":{"id":1,"name":"Lớp 6A","slug":"lop-6a","description":"Lớp 6A ban cơ bản"},"school_year":{"id":2,"name":"Năm học 2023-2024"},"created_at":"08/04/2024","updated_at":"08/04/2024"},{"id":1,"full_name":"Bùi Minh Anh","gender":"Nam","birthday":"2012-10-10","address":"Đồng Nai","nation":"Kinh","religion":"Không","father_name":"Bùi Minh Anh Bố","father_job":"Bác sĩ","mother_name":"Nguyễn Minh Anh Mẹ","mother_job":"Y tá","classes":{"id":1,"name":"Lớp 6A","slug":"lop-6a","description":"Lớp 6A ban cơ bản"},"school_year":{"id":1,"name":"Năm học 2022-2023"},"created_at":"13/08/2023","updated_at":"13/08/2023"},{"id":7,"full_name":"Bùi Minh Anh","gender":"Nam","birthday":"2012-10-10","address":"Đồng Nai","nation":"Kinh","religion":"Không","father_name":"Bùi Minh Anh Bố","father_job":"Bác sĩ","mother_name":"Nguyễn Minh Anh Mẹ","mother_job":"Y tá","classes":{"id":1,"name":"Lớp 6A","slug":"lop-6a","description":"Lớp 6A ban cơ bản"},"school_year":{"id":2,"name":"Năm học 2023-2024"},"created_at":null,"updated_at":null},{"id":8,"full_name":"Bùi Minh Anh","gender":"Nam","birthday":"2012-10-10","address":"Đồng Nai","nation":"Kinh","religion":"Không","father_name":"Bùi Minh Anh Bố","father_job":"Bác sĩ","mother_name":"Nguyễn Minh Anh Mẹ","mother_job":"Y tá","classes":{"id":1,"name":"Lớp 6A","slug":"lop-6a","description":"Lớp 6A ban cơ bản"},"school_year":{"id":2,"name":"Năm học 2023-2024"},"created_at":null,"updated_at":null},{"id":9,"full_name":"Bùi Minh Anh","gender":"Nam","birthday":"2012-10-10","address":"Đồng Nai","nation":"Kinh","religion":"Không","father_name":"Bùi Minh Anh Bố","father_job":"Bác sĩ","mother_name":"Nguyễn Minh Anh Mẹ","mother_job":"Y tá","classes":{"id":1,"name":"Lớp 6A","slug":"lop-6a","description":"Lớp 6A ban cơ bản"},"school_year":{"id":2,"name":"Năm học 2023-2024"},"created_at":null,"updated_at":null},{"id":10,"full_name":"Bùi Minh Anh","gender":"Nam","birthday":"2012-10-10","address":"Đồng Nai","nation":"Kinh","religion":"Không","father_name":"Bùi Minh Anh Bố","father_job":"Bác sĩ","mother_name":"Nguyễn Minh Anh Mẹ","mother_job":"Y tá","classes":{"id":1,"name":"Lớp 6A","slug":"lop-6a","description":"Lớp 6A ban cơ bản"},"school_year":{"id":2,"name":"Năm học 2023-2024"},"created_at":null,"updated_at":null},{"id":11,"full_name":"Bùi Minh Anh","gender":"Nam","birthday":"2012-10-10","address":"Đồng Nai","nation":"Kinh","religion":"Không","father_name":"Bùi Minh Anh Bố","father_job":"Bác sĩ","mother_name":"Nguyễn Minh Anh Mẹ","mother_job":"Y tá","classes":{"id":1,"name":"Lớp 6A","slug":"lop-6a","description":"Lớp 6A ban cơ bản"},"school_year":{"id":2,"name":"Năm học 2023-2024"},"created_at":null,"updated_at":null},{"id":12,"full_name":"Bùi Minh Anh","gender":"Nam","birthday":"2012-10-10","address":"Đồng Nai","nation":"Kinh","religion":"Không","father_name":"Bùi Minh Anh Bố","father_job":"Bác sĩ","mother_name":"Nguyễn Minh Anh Mẹ","mother_job":"Y tá","classes":{"id":1,"name":"Lớp 6A","slug":"lop-6a","description":"Lớp 6A ban cơ bản"},"school_year":{"id":2,"name":"Năm học 2023-2024"},"created_at":null,"updated_at":null}]}}
[XDSHS_03]
HTTPStatusCode: 200
{"results":{"links":{"next":"http://45.32.106.84:3088/api/students/?limit=10&offset=10","previous":null},"total_items":15,"item_per_page":10,"data":[{"id":6,"full_name":"Bùi Minh Anh","gender":"Nam","birthday":"2012-10-10","address":"Đồng Nai","nation":"Kinh","religion":"Không","father_name":"Bùi Minh Anh Bố","father_job":"Bác sĩ","mother_name":"Nguyễn Minh Anh Mẹ","mother_job":"Y tá","classes":{"id":1,"name":"Lớp 6A","slug":"lop-6a","description":"Lớp 6A ban cơ bản"},"school_year":{"id":2,"name":"Năm học 2023-2024"},"created_at":"04/05/2024","updated_at":"04/05/2024"},{"id":5,"full_name":"Bùi Minh Anh","gender":"Nam","birthday":"2012-10-10","address":"Đồng Nai","nation":"Kinh","religion":"Không","father_name":"Bùi Minh Anh Bố","father_job":"Bác sĩ","mother_name":"Nguyễn Minh Anh Mẹ","mother_job":"Y tá","classes":{"id":1,"name":"Lớp 6A","slug":"lop-6a","description":"Lớp 6A ban cơ bản"},"school_year":{"id":2,"name":"Năm học 2023-2024"},"created_at":"02/05/2024","updated_at":"02/05/2024"},{"id":4,"full_name":"Bùi Minh Anh","gender":"Nam","birthday":"2012-10-10","address":"Đồng Nai","nation":"Kinh","religion":"Không","father_name":"Bùi Minh Anh Bố","father_job":"Bác sĩ","mother_name":"Nguyễn Minh Anh Mẹ","mother_job":"Y tá","classes":{"id":1,"name":"Lớp 6A","slug":"lop-6a","description":"Lớp 6A ban cơ bản"},"school_year":{"id":2,"name":"Năm học 2023-2024"},"created_at":"08/04/2024","updated_at":"08/04/2024"},{"id":1,"full_name":"Bùi Minh Anh","gender":"Nam","birthday":"2012-10-10","address":"Đồng Nai","nation":"Kinh","religion":"Không","father_name":"Bùi Minh Anh Bố","father_job":"Bác sĩ","mother_name":"Nguyễn Minh Anh Mẹ","mother_job":"Y tá","classes":{"id":1,"name":"Lớp 6A","slug":"lop-6a","description":"Lớp 6A ban cơ bản"},"school_year":{"id":1,"name":"Năm học 2022-2023"},"created_at":"13/08/2023","updated_at":"13/08/2023"},{"id":7,"full_name":"Bùi Minh Anh","gender":"Nam","birthday":"2012-10-10","address":"Đồng Nai","nation":"Kinh","religion":"Không","father_name":"Bùi Minh Anh Bố","father_job":"Bác sĩ","mother_name":"Nguyễn Minh Anh Mẹ","mother_job":"Y tá","classes":{"id":1,"name":"Lớp 6A","slug":"lop-6a","description":"Lớp 6A ban cơ bản"},"school_year":{"id":2,"name":"Năm học 2023-2024"},"created_at":null,"updated_at":null},{"id":8,"full_name":"Bùi Minh Anh","gender":"Nam","birthday":"2012-10-10","address":"Đồng Nai","nation":"Kinh","religion":"Không","father_name":"Bùi Minh Anh Bố","father_job":"Bác sĩ","mother_name":"Nguyễn Minh Anh Mẹ","mother_job":"Y tá","classes":{"id":1,"name":"Lớp 6A","slug":"lop-6a","description":"Lớp 6A ban cơ bản"},"school_year":{"id":2,"name":"Năm học 2023-2024"},"created_at":null,"updated_at":null},{"id":9,"full_name":"Bùi Minh Anh","gender":"Nam","birthday":"2012-10-10","address":"Đồng Nai","nation":"Kinh","religion":"Không","father_name":"Bùi Minh Anh Bố","father_job":"Bác sĩ","mother_name":"Nguyễn Minh Anh Mẹ","mother_job":"Y tá","classes":{"id":1,"name":"Lớp 6A","slug":"lop-6a","description":"Lớp 6A ban cơ bản"},"school_year":{"id":2,"name":"Năm học 2023-2024"},"created_at":null,"updated_at":null},{"id":10,"full_name":"Bùi Minh Anh","gender":"Nam","birthday":"2012-10-10","address":"Đồng Nai","nation":"Kinh","religion":"Không","father_name":"Bùi Minh Anh Bố","father_job":"Bác sĩ","mother_name":"Nguyễn Minh Anh Mẹ","mother_job":"Y tá","classes":{"id":1,"name":"Lớp 6A","slug":"lop-6a","description":"Lớp 6A ban cơ bản"},"school_year":{"id":2,"name":"Năm học 2023-2024"},"created_at":null,"updated_at":null},{"id":11,"full_name":"Bùi Minh Anh","gender":"Nam","birthday":"2012-10-10","address":"Đồng Nai","nation":"Kinh","religion":"Không","father_name":"Bùi Minh Anh Bố","father_job":"Bác sĩ","mother_name":"Nguyễn Minh Anh Mẹ","mother_job":"Y tá","classes":{"id":1,"name":"Lớp 6A","slug":"lop-6a","description":"Lớp 6A ban cơ bản"},"school_year":{"id":2,"name":"Năm học 2023-2024"},"created_at":null,"updated_at":null},{"id":12,"full_name":"Bùi Minh Anh","gender":"Nam","birthday":"2012-10-10","address":"Đồng Nai","nation":"Kinh","religion":"Không","father_name":"Bùi Minh Anh Bố","father_job":"Bác sĩ","mother_name":"Nguyễn Minh Anh Mẹ","mother_job":"Y tá","classes":{"id":1,"name":"Lớp 6A","slug":"lop-6a","description":"Lớp 6A ban cơ bản"},"school_year":{"id":2,"name":"Năm học 2023-2024"},"created_at":null,"updated_at":null}]}}
[XDSHS_04]
HTTPStatusCode: 200
{"results":{"links":{"next":"http://45.32.106.84:3088/api/students/?limit=10&offset=10","previous":null},"total_items":15,"item_per_page":10,"data":[{"id":6,"full_name":"Bùi Minh Anh","gender":"Nam","birthday":"2012-10-10","address":"Đồng Nai","nation":"Kinh","religion":"Không","father_name":"Bùi Minh Anh Bố","father_job":"Bác sĩ","mother_name":"Nguyễn Minh Anh Mẹ","mother_job":"Y tá","classes":{"id":1,"name":"Lớp 6A","slug":"lop-6a","description":"Lớp 6A ban cơ bản"},"school_year":{"id":2,"name":"Năm học 2023-2024"},"created_at":"04/05/2024","updated_at":"04/05/2024"},{"id":5,"full_name":"Bùi Minh Anh","gender":"Nam","birthday":"2012-10-10","address":"Đồng Nai","nation":"Kinh","religion":"Không","father_name":"Bùi Minh Anh Bố","father_job":"Bác sĩ","mother_name":"Nguyễn Minh Anh Mẹ","mother_job":"Y tá","classes":{"id":1,"name":"Lớp 6A","slug":"lop-6a","description":"Lớp 6A ban cơ bản"},"school_year":{"id":2,"name":"Năm học 2023-2024"},"created_at":"02/05/2024","updated_at":"02/05/2024"},{"id":4,"full_name":"Bùi Minh Anh","gender":"Nam","birthday":"2012-10-10","address":"Đồng Nai","nation":"Kinh","religion":"Không","father_name":"Bùi Minh Anh Bố","father_job":"Bác sĩ","mother_name":"Nguyễn Minh Anh Mẹ","mother_job":"Y tá","classes":{"id":1,"name":"Lớp 6A","slug":"lop-6a","description":"Lớp 6A ban cơ bản"},"school_year":{"id":2,"name":"Năm học 2023-2024"},"created_at":"08/04/2024","updated_at":"08/04/2024"},{"id":1,"full_name":"Bùi Minh Anh","gender":"Nam","birthday":"2012-10-10","address":"Đồng Nai","nation":"Kinh","religion":"Không","father_name":"Bùi Minh Anh Bố","father_job":"Bác sĩ","mother_name":"Nguyễn Minh Anh Mẹ","mother_job":"Y tá","classes":{"id":1,"name":"Lớp 6A","slug":"lop-6a","description":"Lớp 6A ban cơ bản"},"school_year":{"id":1,"name":"Năm học 2022-2023"},"created_at":"13/08/2023","updated_at":"13/08/2023"},{"id":7,"full_name":"Bùi Minh Anh","gender":"Nam","birthday":"2012-10-10","address":"Đồng Nai","nation":"Kinh","religion":"Không","father_name":"Bùi Minh Anh Bố","father_job":"Bác sĩ","mother_name":"Nguyễn Minh Anh Mẹ","mother_job":"Y tá","classes":{"id":1,"name":"Lớp 6A","slug":"lop-6a","description":"Lớp 6A ban cơ bản"},"school_year":{"id":2,"name":"Năm học 2023-2024"},"created_at":null,"updated_at":null},{"id":8,"full_name":"Bùi Minh Anh","gender":"Nam","birthday":"2012-10-10","address":"Đồng Nai","nation":"Kinh","religion":"Không","father_name":"Bùi Minh Anh Bố","father_job":"Bác sĩ","mother_name":"Nguyễn Minh Anh Mẹ","mother_job":"Y tá","classes":{"id":1,"name":"Lớp 6A","slug":"lop-6a","description":"Lớp 6A ban cơ bản"},"school_year":{"id":2,"name":"Năm học 2023-2024"},"created_at":null,"updated_at":null},{"id":9,"full_name":"Bùi Minh Anh","gender":"Nam","birthday":"2012-10-10","address":"Đồng Nai","nation":"Kinh","religion":"Không","father_name":"Bùi Minh Anh Bố","father_job":"Bác sĩ","mother_name":"Nguyễn Minh Anh Mẹ","mother_job":"Y tá","classes":{"id":1,"name":"Lớp 6A","slug":"lop-6a","description":"Lớp 6A ban cơ bản"},"school_year":{"id":2,"name":"Năm học 2023-2024"},"created_at":null,"updated_at":null},{"id":10,"full_name":"Bùi Minh Anh","gender":"Nam","birthday":"2012-10-10","address":"Đồng Nai","nation":"Kinh","religion":"Không","father_name":"Bùi Minh Anh Bố","father_job":"Bác sĩ","mother_name":"Nguyễn Minh Anh Mẹ","mother_job":"Y tá","classes":{"id":1,"name":"Lớp 6A","slug":"lop-6a","description":"Lớp 6A ban cơ bản"},"school_year":{"id":2,"name":"Năm học 2023-2024"},"created_at":null,"updated_at":null},{"id":11,"full_name":"Bùi Minh Anh","gender":"Nam","birthday":"2012-10-10","address":"Đồng Nai","nation":"Kinh","religion":"Không","father_name":"Bùi Minh Anh Bố","father_job":"Bác sĩ","mother_name":"Nguyễn Minh Anh Mẹ","mother_job":"Y tá","classes":{"id":1,"name":"Lớp 6A","slug":"lop-6a","description":"Lớp 6A ban cơ bản"},"school_year":{"id":2,"name":"Năm học 2023-2024"},"created_at":null,"updated_at":null},{"id":12,"full_name":"Bùi Minh Anh","gender":"Nam","birthday":"2012-10-10","address":"Đồng Nai","nation":"Kinh","religion":"Không","father_name":"Bùi Minh Anh Bố","father_job":"Bác sĩ","mother_name":"Nguyễn Minh Anh Mẹ","mother_job":"Y tá","classes":{"id":1,"name":"Lớp 6A","slug":"lop-6a","description":"Lớp 6A ban cơ bản"},"school_year":{"id":2,"name":"Năm học 2023-2024"},"created_at":null,"updated_at":null}]}}
[XDSHS_05]
HTTPStatusCode: 200
{"results":{"links":{"next":"http://45.32.106.84:3088/api/students/?limit=10&offset=10","previous":null},"total_items":15,"item_per_page":10,"data":[{"id":6,"full_name":"Bùi Minh Anh","gender":"Nam","birthday":"2012-10-10","address":"Đồng Nai","nation":"Kinh","religion":"Không","father_name":"Bùi Minh Anh Bố","father_job":"Bác sĩ","mother_name":"Nguyễn Minh Anh Mẹ","mother_job":"Y tá","classes":{"id":1,"name":"Lớp 6A","slug":"lop-6a","description":"Lớp 6A ban cơ bản"},"school_year":{"id":2,"name":"Năm học 2023-2024"},"created_at":"04/05/2024","updated_at":"04/05/2024"},{"id":5,"full_name":"Bùi Minh Anh","gender":"Nam","birthday":"2012-10-10","address":"Đồng Nai","nation":"Kinh","religion":"Không","father_name":"Bùi Minh Anh Bố","father_job":"Bác sĩ","mother_name":"Nguyễn Minh Anh Mẹ","mother_job":"Y tá","classes":{"id":1,"name":"Lớp 6A","slug":"lop-6a","description":"Lớp 6A ban cơ bản"},"school_year":{"id":2,"name":"Năm học 2023-2024"},"created_at":"02/05/2024","updated_at":"02/05/2024"},{"id":4,"full_name":"Bùi Minh Anh","gender":"Nam","birthday":"2012-10-10","address":"Đồng Nai","nation":"Kinh","religion":"Không","father_name":"Bùi Minh Anh Bố","father_job":"Bác sĩ","mother_name":"Nguyễn Minh Anh Mẹ","mother_job":"Y tá","classes":{"id":1,"name":"Lớp 6A","slug":"lop-6a","description":"Lớp 6A ban cơ bản"},"school_year":{"id":2,"name":"Năm học 2023-2024"},"created_at":"08/04/2024","updated_at":"08/04/2024"},{"id":1,"full_name":"Bùi Minh Anh","gender":"Nam","birthday":"2012-10-10","address":"Đồng Nai","nation":"Kinh","religion":"Không","father_name":"Bùi Minh Anh Bố","father_job":"Bác sĩ","mother_name":"Nguyễn Minh Anh Mẹ","mother_job":"Y tá","classes":{"id":1,"name":"Lớp 6A","slug":"lop-6a","description":"Lớp 6A ban cơ bản"},"school_year":{"id":1,"name":"Năm học 2022-2023"},"created_at":"13/08/2023","updated_at":"13/08/2023"},{"id":7,"full_name":"Bùi Minh Anh","gender":"Nam","birthday":"2012-10-10","address":"Đồng Nai","nation":"Kinh","religion":"Không","father_name":"Bùi Minh Anh Bố","father_job":"Bác sĩ","mother_name":"Nguyễn Minh Anh Mẹ","mother_job":"Y tá","classes":{"id":1,"name":"Lớp 6A","slug":"lop-6a","description":"Lớp 6A ban cơ bản"},"school_year":{"id":2,"name":"Năm học 2023-2024"},"created_at":null,"updated_at":null},{"id":8,"full_name":"Bùi Minh Anh","gender":"Nam","birthday":"2012-10-10","address":"Đồng Nai","nation":"Kinh","religion":"Không","father_name":"Bùi Minh Anh Bố","father_job":"Bác sĩ","mother_name":"Nguyễn Minh Anh Mẹ","mother_job":"Y tá","classes":{"id":1,"name":"Lớp 6A","slug":"lop-6a","description":"Lớp 6A ban cơ bản"},"school_year":{"id":2,"name":"Năm học 2023-2024"},"created_at":null,"updated_at":null},{"id":9,"full_name":"Bùi Minh Anh","gender":"Nam","birthday":"2012-10-10","address":"Đồng Nai","nation":"Kinh","religion":"Không","father_name":"Bùi Minh Anh Bố","father_job":"Bác sĩ","mother_name":"Nguyễn Minh Anh Mẹ","mother_job":"Y tá","classes":{"id":1,"name":"Lớp 6A","slug":"lop-6a","description":"Lớp 6A ban cơ bản"},"school_year":{"id":2,"name":"Năm học 2023-2024"},"created_at":null,"updated_at":null},{"id":10,"full_name":"Bùi Minh Anh","gender":"Nam","birthday":"2012-10-10","address":"Đồng Nai","nation":"Kinh","religion":"Không","father_name":"Bùi Minh Anh Bố","father_job":"Bác sĩ","mother_name":"Nguyễn Minh Anh Mẹ","mother_job":"Y tá","classes":{"id":1,"name":"Lớp 6A","slug":"lop-6a","description":"Lớp 6A ban cơ bản"},"school_year":{"id":2,"name":"Năm học 2023-2024"},"created_at":null,"updated_at":null},{"id":11,"full_name":"Bùi Minh Anh","gender":"Nam","birthday":"2012-10-10","address":"Đồng Nai","nation":"Kinh","religion":"Không","father_name":"Bùi Minh Anh Bố","father_job":"Bác sĩ","mother_name":"Nguyễn Minh Anh Mẹ","mother_job":"Y tá","classes":{"id":1,"name":"Lớp 6A","slug":"lop-6a","description":"Lớp 6A ban cơ bản"},"school_year":{"id":2,"name":"Năm học 2023-2024"},"created_at":null,"updated_at":null},{"id":12,"full_name":"Bùi Minh Anh","gender":"Nam","birthday":"2012-10-10","address":"Đồng Nai","nation":"Kinh","religion":"Không","father_name":"Bùi Minh Anh Bố","father_job":"Bác sĩ","mother_name":"Nguyễn Minh Anh Mẹ","mother_job":"Y tá","classes":{"id":1,"name":"Lớp 6A","slug":"lop-6a","description":"Lớp 6A ban cơ bản"},"school_year":{"id":2,"name":"Năm học 2023-2024"},"created_at":null,"updated_at":null}]}}
