[XDSGV_01]
HTTPStatusCode: 200
{"results":{"links":{"next":"http://45.32.106.84:3088/api/users/?limit=10&offset=10","previous":null},"total_items":108,"item_per_page":10,"data":[{"id":124,"full_name":"Nguyễn Văn A","phone":"0123456789","email":"nguyenvana@gmail.com","address":"Hà Nội","position":"Toán","specialize":"Giáo viên","department":{"id":1,"name":"Bộ môn Toán","slug":"bo-mon-toan"},"created_at":"04/05/2024","updated_at":"04/05/2024"},{"id":123,"full_name":"Nguyễn Văn A","phone":"0123456789","email":"nguyenvana@gmail.com","address":"Hà Nội","position":"Toán","specialize":"Giáo viên","department":{"id":1,"name":"Bộ môn Toán","slug":"bo-mon-toan"},"created_at":"04/05/2024","updated_at":"04/05/2024"},{"id":122,"full_name":"Nguyễn Văn A","phone":"0123456789","email":"nguyenvana@gmail.com","address":"Hà Nội","position":"Toán","specialize":"Giáo viên","department":{"id":1,"name":"Bộ môn Toán","slug":"bo-mon-toan"},"created_at":"04/05/2024","updated_at":"04/05/2024"},{"id":121,"full_name":"Nguyễn Văn A","phone":"0123456789","email":"nguyenvana@gmail.com","address":"Hà Nội","position":"Toán","specialize":"Giáo viên","department":{"id":1,"name":"Bộ môn Toán","slug":"bo-mon-toan"},"created_at":"04/05/2024","updated_at":"04/05/2024"},{"id":120,"full_name":"Nguyễn Văn A","phone":"0123456789","email":"nguyenvana@gmail.com","address":"Hà Nội","position":"Toán","specialize":"Giáo viên","department":{"id":1,"name":"Bộ môn Toán","slug":"bo-mon-toan"},"created_at":"04/05/2024","updated_at":"04/05/2024"},{"id":119,"full_name":"Nguyễn Văn A","phone":"0123456789","email":"nguyenvana@gmail.com","address":"Hà Nội","position":"Toán","specialize":"Giáo viên","department":{"id":1,"name":"Bộ môn Toán","slug":"bo-mon-toan"},"created_at":"04/05/2024","updated_at":"04/05/2024"},{"id":118,"full_name":"Nguyễn Văn A","phone":"0123456789","email":"nguyenvana@gmail.com","address":"Hà Nội","position":"Toán","specialize":"Giáo viên","department":{"id":1,"name":"Bộ môn Toán","slug":"bo-mon-toan"},"created_at":"04/05/2024","updated_at":"04/05/2024"},{"id":6,"full_name":"Nguyễn Văn A","phone":"0331234560","email":"nguyenvana@gmail.com","address":"Hà Nội","position":"Giáo viên","specialize":"Toán","department":{"id":1,"name":"Bộ môn Toán","slug":"bo-mon-toan"},"created_at":"04/05/2024","updated_at":"04/05/2024"},{"id":117,"full_name":"Nguyễn Văn A","phone":"0123456789","email":"nguyenvana@gmail.com","address":"Hà Nội","position":"Giáo viên","specialize":"Toán","department":{"id":1,"name":"Bộ môn Toán","slug":"bo-mon-toan"},"created_at":"04/05/2024","updated_at":"04/05/2024"},{"id":116,"full_name":"Nguyễn Văn A","phone":"0123456789","email":"nguyenvana@gmail.com","address":"Hà Nội","position":"Giáo viên","specialize":"Toán","department":{"id":1,"name":"Bộ môn Toán","slug":"bo-mon-toan"},"created_at":"04/05/2024","updated_at":"04/05/2024"}]}}
[XDSGV_02]
HTTPStatusCode: 200
{"results":{"links":{"next":"http://45.32.106.84:3088/api/users/?limit=10&offset=10","previous":null},"total_items":108,"item_per_page":10,"data":[{"id":124,"full_name":"Nguyễn Văn A","phone":"0123456789","email":"nguyenvana@gmail.com","address":"Hà Nội","position":"Toán","specialize":"Giáo viên","department":{"id":1,"name":"Bộ môn Toán","slug":"bo-mon-toan"},"created_at":"04/05/2024","updated_at":"04/05/2024"},{"id":123,"full_name":"Nguyễn Văn A","phone":"0123456789","email":"nguyenvana@gmail.com","address":"Hà Nội","position":"Toán","specialize":"Giáo viên","department":{"id":1,"name":"Bộ môn Toán","slug":"bo-mon-toan"},"created_at":"04/05/2024","updated_at":"04/05/2024"},{"id":122,"full_name":"Nguyễn Văn A","phone":"0123456789","email":"nguyenvana@gmail.com","address":"Hà Nội","position":"Toán","specialize":"Giáo viên","department":{"id":1,"name":"Bộ môn Toán","slug":"bo-mon-toan"},"created_at":"04/05/2024","updated_at":"04/05/2024"},{"id":121,"full_name":"Nguyễn Văn A","phone":"0123456789","email":"nguyenvana@gmail.com","address":"Hà Nội","position":"Toán","specialize":"Giáo viên","department":{"id":1,"name":"Bộ môn Toán","slug":"bo-mon-toan"},"created_at":"04/05/2024","updated_at":"04/05/2024"},{"id":120,"full_name":"Nguyễn Văn A","phone":"0123456789","email":"nguyenvana@gmail.com","address":"Hà Nội","position":"Toán","specialize":"Giáo viên","department":{"id":1,"name":"Bộ môn Toán","slug":"bo-mon-toan"},"created_at":"04/05/2024","updated_at":"04/05/2024"},{"id":119,"full_name":"Nguyễn Văn A","phone":"0123456789","email":"nguyenvana@gmail.com","address":"Hà Nội","position":"Toán","specialize":"Giáo viên","department":{"id":1,"name":"Bộ môn Toán","slug":"bo-mon-toan"},"created_at":"04/05/2024","updated_at":"04/05/2024"},{"id":118,"full_name":"Nguyễn Văn A","phone":"0123456789","email":"nguyenvana@gmail.com","address":"Hà Nội","position":"Toán","specialize":"Giáo viên","department":{"id":1,"name":"Bộ môn Toán","slug":"bo-mon-toan"},"created_at":"04/05/2024","updated_at":"04/05/2024"},{"id":6,"full_name":"Nguyễn Văn A","phone":"0331234560","email":"nguyenvana@gmail.com","address":"Hà Nội","position":"Giáo viên","specialize":"Toán","department":{"id":1,"name":"Bộ môn Toán","slug":"bo-mon-toan"},"created_at":"04/05/2024","updated_at":"04/05/2024"},{"id":117,"full_name":"Nguyễn Văn A","phone":"0123456789","email":"nguyenvana@gmail.com","address":"Hà Nội","position":"Giáo viên","specialize":"Toán","department":{"id":1,"name":"Bộ môn Toán","slug":"bo-mon-toan"},"created_at":"04/05/2024","updated_at":"04/05/2024"},{"id":116,"full_name":"Nguyễn Văn A","phone":"0123456789","email":"nguyenvana@gmail.com","address":"Hà Nội","position":"Giáo viên","specialize":"Toán","department":{"id":1,"name":"Bộ môn Toán","slug":"bo-mon-toan"},"created_at":"04/05/2024","updated_at":"04/05/2024"}]}}
[XDSGV_03]
HTTPStatusCode: 200
{"results":{"links":{"next":"http://45.32.106.84:3088/api/users/?limit=10&offset=10","previous":null},"total_items":108,"item_per_page":10,"data":[{"id":124,"full_name":"Nguyễn Văn A","phone":"0123456789","email":"nguyenvana@gmail.com","address":"Hà Nội","position":"Toán","specialize":"Giáo viên","department":{"id":1,"name":"Bộ môn Toán","slug":"bo-mon-toan"},"created_at":"04/05/2024","updated_at":"04/05/2024"},{"id":123,"full_name":"Nguyễn Văn A","phone":"0123456789","email":"nguyenvana@gmail.com","address":"Hà Nội","position":"Toán","specialize":"Giáo viên","department":{"id":1,"name":"Bộ môn Toán","slug":"bo-mon-toan"},"created_at":"04/05/2024","updated_at":"04/05/2024"},{"id":122,"full_name":"Nguyễn Văn A","phone":"0123456789","email":"nguyenvana@gmail.com","address":"Hà Nội","position":"Toán","specialize":"Giáo viên","department":{"id":1,"name":"Bộ môn Toán","slug":"bo-mon-toan"},"created_at":"04/05/2024","updated_at":"04/05/2024"},{"id":121,"full_name":"Nguyễn Văn A","phone":"0123456789","email":"nguyenvana@gmail.com","address":"Hà Nội","position":"Toán","specialize":"Giáo viên","department":{"id":1,"name":"Bộ môn Toán","slug":"bo-mon-toan"},"created_at":"04/05/2024","updated_at":"04/05/2024"},{"id":120,"full_name":"Nguyễn Văn A","phone":"0123456789","email":"nguyenvana@gmail.com","address":"Hà Nội","position":"Toán","specialize":"Giáo viên","department":{"id":1,"name":"Bộ môn Toán","slug":"bo-mon-toan"},"created_at":"04/05/2024","updated_at":"04/05/2024"},{"id":119,"full_name":"Nguyễn Văn A","phone":"0123456789","email":"nguyenvana@gmail.com","address":"Hà Nội","position":"Toán","specialize":"Giáo viên","department":{"id":1,"name":"Bộ môn Toán","slug":"bo-mon-toan"},"created_at":"04/05/2024","updated_at":"04/05/2024"},{"id":118,"full_name":"Nguyễn Văn A","phone":"0123456789","email":"nguyenvana@gmail.com","address":"Hà Nội","position":"Toán","specialize":"Giáo viên","department":{"id":1,"name":"Bộ môn Toán","slug":"bo-mon-toan"},"created_at":"04/05/2024","updated_at":"04/05/2024"},{"id":6,"full_name":"Nguyễn Văn A","phone":"0331234560","email":"nguyenvana@gmail.com","address":"Hà Nội","position":"Giáo viên","specialize":"Toán","department":{"id":1,"name":"Bộ môn Toán","slug":"bo-mon-toan"},"created_at":"04/05/2024","updated_at":"04/05/2024"},{"id":117,"full_name":"Nguyễn Văn A","phone":"0123456789","email":"nguyenvana@gmail.com","address":"Hà Nội","position":"Giáo viên","specialize":"Toán","department":{"id":1,"name":"Bộ môn Toán","slug":"bo-mon-toan"},"created_at":"04/05/2024","updated_at":"04/05/2024"},{"id":116,"full_name":"Nguyễn Văn A","phone":"0123456789","email":"nguyenvana@gmail.com","address":"Hà Nội","position":"Giáo viên","specialize":"Toán","department":{"id":1,"name":"Bộ môn Toán","slug":"bo-mon-toan"},"created_at":"04/05/2024","updated_at":"04/05/2024"}]}}
[XDSGV_04]
HTTPStatusCode: 200
{"results":{"links":{"next":"http://45.32.106.84:3088/api/users/?limit=10&offset=10","previous":null},"total_items":108,"item_per_page":10,"data":[{"id":124,"full_name":"Nguyễn Văn A","phone":"0123456789","email":"nguyenvana@gmail.com","address":"Hà Nội","position":"Toán","specialize":"Giáo viên","department":{"id":1,"name":"Bộ môn Toán","slug":"bo-mon-toan"},"created_at":"04/05/2024","updated_at":"04/05/2024"},{"id":123,"full_name":"Nguyễn Văn A","phone":"0123456789","email":"nguyenvana@gmail.com","address":"Hà Nội","position":"Toán","specialize":"Giáo viên","department":{"id":1,"name":"Bộ môn Toán","slug":"bo-mon-toan"},"created_at":"04/05/2024","updated_at":"04/05/2024"},{"id":122,"full_name":"Nguyễn Văn A","phone":"0123456789","email":"nguyenvana@gmail.com","address":"Hà Nội","position":"Toán","specialize":"Giáo viên","department":{"id":1,"name":"Bộ môn Toán","slug":"bo-mon-toan"},"created_at":"04/05/2024","updated_at":"04/05/2024"},{"id":121,"full_name":"Nguyễn Văn A","phone":"0123456789","email":"nguyenvana@gmail.com","address":"Hà Nội","position":"Toán","specialize":"Giáo viên","department":{"id":1,"name":"Bộ môn Toán","slug":"bo-mon-toan"},"created_at":"04/05/2024","updated_at":"04/05/2024"},{"id":120,"full_name":"Nguyễn Văn A","phone":"0123456789","email":"nguyenvana@gmail.com","address":"Hà Nội","position":"Toán","specialize":"Giáo viên","department":{"id":1,"name":"Bộ môn Toán","slug":"bo-mon-toan"},"created_at":"04/05/2024","updated_at":"04/05/2024"},{"id":119,"full_name":"Nguyễn Văn A","phone":"0123456789","email":"nguyenvana@gmail.com","address":"Hà Nội","position":"Toán","specialize":"Giáo viên","department":{"id":1,"name":"Bộ môn Toán","slug":"bo-mon-toan"},"created_at":"04/05/2024","updated_at":"04/05/2024"},{"id":118,"full_name":"Nguyễn Văn A","phone":"0123456789","email":"nguyenvana@gmail.com","address":"Hà Nội","position":"Toán","specialize":"Giáo viên","department":{"id":1,"name":"Bộ môn Toán","slug":"bo-mon-toan"},"created_at":"04/05/2024","updated_at":"04/05/2024"},{"id":6,"full_name":"Nguyễn Văn A","phone":"0331234560","email":"nguyenvana@gmail.com","address":"Hà Nội","position":"Giáo viên","specialize":"Toán","department":{"id":1,"name":"Bộ môn Toán","slug":"bo-mon-toan"},"created_at":"04/05/2024","updated_at":"04/05/2024"},{"id":117,"full_name":"Nguyễn Văn A","phone":"0123456789","email":"nguyenvana@gmail.com","address":"Hà Nội","position":"Giáo viên","specialize":"Toán","department":{"id":1,"name":"Bộ môn Toán","slug":"bo-mon-toan"},"created_at":"04/05/2024","updated_at":"04/05/2024"},{"id":116,"full_name":"Nguyễn Văn A","phone":"0123456789","email":"nguyenvana@gmail.com","address":"Hà Nội","position":"Giáo viên","specialize":"Toán","department":{"id":1,"name":"Bộ môn Toán","slug":"bo-mon-toan"},"created_at":"04/05/2024","updated_at":"04/05/2024"}]}}
[XDSGV_05]
HTTPStatusCode: 200
{"results":{"links":{"next":"http://45.32.106.84:3088/api/users/?limit=10&offset=10","previous":null},"total_items":108,"item_per_page":10,"data":[{"id":124,"full_name":"Nguyễn Văn A","phone":"0123456789","email":"nguyenvana@gmail.com","address":"Hà Nội","position":"Toán","specialize":"Giáo viên","department":{"id":1,"name":"Bộ môn Toán","slug":"bo-mon-toan"},"created_at":"04/05/2024","updated_at":"04/05/2024"},{"id":123,"full_name":"Nguyễn Văn A","phone":"0123456789","email":"nguyenvana@gmail.com","address":"Hà Nội","position":"Toán","specialize":"Giáo viên","department":{"id":1,"name":"Bộ môn Toán","slug":"bo-mon-toan"},"created_at":"04/05/2024","updated_at":"04/05/2024"},{"id":122,"full_name":"Nguyễn Văn A","phone":"0123456789","email":"nguyenvana@gmail.com","address":"Hà Nội","position":"Toán","specialize":"Giáo viên","department":{"id":1,"name":"Bộ môn Toán","slug":"bo-mon-toan"},"created_at":"04/05/2024","updated_at":"04/05/2024"},{"id":121,"full_name":"Nguyễn Văn A","phone":"0123456789","email":"nguyenvana@gmail.com","address":"Hà Nội","position":"Toán","specialize":"Giáo viên","department":{"id":1,"name":"Bộ môn Toán","slug":"bo-mon-toan"},"created_at":"04/05/2024","updated_at":"04/05/2024"},{"id":120,"full_name":"Nguyễn Văn A","phone":"0123456789","email":"nguyenvana@gmail.com","address":"Hà Nội","position":"Toán","specialize":"Giáo viên","department":{"id":1,"name":"Bộ môn Toán","slug":"bo-mon-toan"},"created_at":"04/05/2024","updated_at":"04/05/2024"},{"id":119,"full_name":"Nguyễn Văn A","phone":"0123456789","email":"nguyenvana@gmail.com","address":"Hà Nội","position":"Toán","specialize":"Giáo viên","department":{"id":1,"name":"Bộ môn Toán","slug":"bo-mon-toan"},"created_at":"04/05/2024","updated_at":"04/05/2024"},{"id":118,"full_name":"Nguyễn Văn A","phone":"0123456789","email":"nguyenvana@gmail.com","address":"Hà Nội","position":"Toán","specialize":"Giáo viên","department":{"id":1,"name":"Bộ môn Toán","slug":"bo-mon-toan"},"created_at":"04/05/2024","updated_at":"04/05/2024"},{"id":6,"full_name":"Nguyễn Văn A","phone":"0331234560","email":"nguyenvana@gmail.com","address":"Hà Nội","position":"Giáo viên","specialize":"Toán","department":{"id":1,"name":"Bộ môn Toán","slug":"bo-mon-toan"},"created_at":"04/05/2024","updated_at":"04/05/2024"},{"id":117,"full_name":"Nguyễn Văn A","phone":"0123456789","email":"nguyenvana@gmail.com","address":"Hà Nội","position":"Giáo viên","specialize":"Toán","department":{"id":1,"name":"Bộ môn Toán","slug":"bo-mon-toan"},"created_at":"04/05/2024","updated_at":"04/05/2024"},{"id":116,"full_name":"Nguyễn Văn A","phone":"0123456789","email":"nguyenvana@gmail.com","address":"Hà Nội","position":"Giáo viên","specialize":"Toán","department":{"id":1,"name":"Bộ môn Toán","slug":"bo-mon-toan"},"created_at":"04/05/2024","updated_at":"04/05/2024"}]}}
